R Ladies Niterói apresenta:
…
```
## The following objects are masked from 'package:base':
## 
##     intersect, setdiff, setequal, union
```

```r
starwars
```

```
## # A tibble: 87 x 14
##    name  height  mass hair_color skin_color eye_color birth_year sex   gender
##    <chr>  <int> <dbl> <chr>      <chr>      <chr>          <dbl> <chr> <chr> 
##  1 Luke~    172    77 blond      fair       blue            19   male  mascu~
##  2 C-3PO    167    75 <NA>       gold       yellow         112   none  mascu~
##  3 R2-D2     96    32 <NA>       white, bl~ red             33   none  mascu~
##  4 Dart~    202   136 none       white      yellow          41.9 male  mascu~
##  5 Leia~    150    49 brown      light      brown           19   fema~ femin~
##  6 Owen~    178   120 brown, gr~ light      blue            52   male  mascu~
##  7 Beru~    165    75 brown      light      blue            47   fema~ femin~
##  8 R5-D4     97    32 <NA>       white, red red             NA   none  mascu~
##  9 Bigg~    183    84 black      light      brown           24   male  mascu~
## 10 Obi-~    182    77 auburn, w~ fair       blue-gray       57   male  mascu~
## # ... with 77 more rows, and 5 more variables: homeworld <chr>, species <chr>,
## #   films <list>, vehicles <list>, starships <list>
```
…
---

# Função: select()

A primeira função que vamos estudar é o *select()*. Esta função irá *selecionar* as colunas do banco de dados que você colocou como argumento. Vejamos o exemplo a seguir:

### Código

```r
starwars %>% 
  select(name, species, homeworld)
```

```
## # A tibble: 87 x 3
##    name               species homeworld
##    <chr>              <chr>   <chr>    
##  1 Luke Skywalker     Human   Tatooine 
##  2 C-3PO              Droid   Tatooine 
##  3 R2-D2              Droid   Naboo    
##  4 Darth Vader        Human   Tatooine 
##  5 Leia Organa        Human   Alderaan 
##  6 Owen Lars          Human   Tatooine 
##  7 Beru Whitesun lars Human   Tatooine 
##  8 R5-D4              Droid   Tatooine 
##  9 Biggs Darklighter  Human   Tatooine 
## 10 Obi-Wan Kenobi     Human   Stewjon  
## # ... with 77 more rows
```
---

# Função: select()

Na função *select()*, podemos usar outra função que é *everything()* que irá nos ajudar a organizar as colunas.

### Código - Organizando as colunas

```r
starwars %>% 
  select(name, species, gender, everything())
```

```
## # A tibble: 87 x 14
##    name  species gender height  mass hair_color skin_color eye_color birth_year
##    <chr> <chr>   <chr>   <int> <dbl> <chr>      <chr>      <chr>          <dbl>
##  1 Luke~ Human   mascu~    172    77 blond      fair       blue            19  
##  2 C-3PO Droid   mascu~    167    75 <NA>       gold       yellow         112  
##  3 R2-D2 Droid   mascu~     96    32 <NA>       white, bl~ red             33  
##  4 Dart~ Human   mascu~    202   136 none       white      yellow          41.9
##  5 Leia~ Human   femin~    150    49 brown      light      brown           19  
##  6 Owen~ Human   mascu~    178   120 brown, gr~ light      blue            52  
##  7 Beru~ Human   femin~    165    75 brown      light      blue            47  
##  8 R5-D4 Droid   mascu~     97    32 <NA>       white, red red             NA  
##  9 Bigg~ Human   mascu~    183    84 black      light      brown           24  
## 10 Obi-~ Human   mascu~    182    77 auburn, w~ fair       blue-gray       57  
## # ... with 77 more rows, and 5 more variables: sex <chr>, homeworld <chr>,
## #   films <list>, vehicles <list>, starships <list>
```
…
---
# Exercício 1: select() - Resolução

- Selecione as colunas: **name**, **hair_color** e **eye_color**:

### Código

```r
starwars %>% 
  select(name, hair_color, eye_color)
```

```
## # A tibble: 87 x 3
##    name               hair_color    eye_color
##    <chr>              <chr>         <chr>    
##  1 Luke Skywalker     blond         blue     
##  2 C-3PO              <NA>          yellow   
##  3 R2-D2              <NA>          red      
##  4 Darth Vader        none          yellow   
##  5 Leia Organa        brown         brown    
##  6 Owen Lars          brown, grey   blue     
##  7 Beru Whitesun lars brown         blue     
##  8 R5-D4              <NA>          red      
##  9 Biggs Darklighter  black         brown    
## 10 Obi-Wan Kenobi     auburn, white blue-gray
## # ... with 77 more rows
```
---

# Função: filter()

Sem dúvidas a função *filter()* é uma das mais importantes deste pacote. Usamos para filtrar as linhas de um banco de dados em relação a algum critério. Vamos ver os seguintes exemplos:

### Código:

```r
starwars %>% 
  filter(mass > 50)
```

```
## # A tibble: 46 x 14
##    name  height  mass hair_color skin_color eye_color birth_year sex   gender
##    <chr>  <int> <dbl> <chr>      <chr>      <chr>          <dbl> <chr> <chr> 
##  1 Luke~    172    77 blond      fair       blue            19   male  mascu~
##  2 C-3PO    167    75 <NA>       gold       yellow         112   none  mascu~
##  3 Dart~    202   136 none       white      yellow          41.9 male  mascu~
##  4 Owen~    178   120 brown, gr~ light      blue            52   male  mascu~
##  5 Beru~    165    75 brown      light      blue            47   fema~ femin~
##  6 Bigg~    183    84 black      light      brown           24   male  mascu~
##  7 Obi-~    182    77 auburn, w~ fair       blue-gray       57   male  mascu~
##  8 Anak~    188    84 blond      fair       blue            41.9 male  mascu~
##  9 Chew~    228   112 brown      unknown    blue           200   male  mascu~
## 10 Han ~    180    80 brown      fair       brown           29   male  mascu~
## # ... with 36 more rows, and 5 more variables: homeworld <chr>, species <chr>,
## #   films <list>, vehicles <list>, starships <list>
```
…
---

# Função: filter()

### Código:

```r
starwars %>% 
  filter(mass >= 50 & mass <= 100)
```

```
## # A tibble: 38 x 14
##    name  height  mass hair_color skin_color eye_color birth_year sex   gender
##    <chr>  <int> <dbl> <chr>      <chr>      <chr>          <dbl> <chr> <chr> 
##  1 Luke~    172    77 blond      fair       blue            19   male  mascu~
##  2 C-3PO    167    75 <NA>       gold       yellow         112   none  mascu~
##  3 Beru~    165    75 brown      light      blue            47   fema~ femin~
##  4 Bigg~    183    84 black      light      brown           24   male  mascu~
##  5 Obi-~    182    77 auburn, w~ fair       blue-gray       57   male  mascu~
##  6 Anak~    188    84 blond      fair       blue            41.9 male  mascu~
##  7 Han ~    180    80 brown      fair       brown           29   male  mascu~
##  8 Gree~    173    74 <NA>       green      black           44   male  mascu~
##  9 Wedg~    170    77 brown      fair       hazel           21   male  mascu~
## 10 Palp~    170    75 grey       pale       yellow          82   male  mascu~
## # ... with 28 more rows, and 5 more variables: homeworld <chr>, species <chr>,
## #   films <list>, vehicles <list>, starships <list>
```
…
---

# Função: mutate()

A função *mutate()* irá adicionar uma nova coluna ou mais no final da sua base de dados. A função possibilita a realização de cáculos e os seus resultados irão ocupar as linhas de nova coluna.

```r
data <- starwars %>% 
  mutate(heightM = height / 100)

data
```

```
## # A tibble: 87 x 15
##    name  height  mass hair_color skin_color eye_color birth_year sex   gender
##    <chr>  <int> <dbl> <chr>      <chr>      <chr>          <dbl> <chr> <chr> 
##  1 Luke~    172    77 blond      fair       blue            19   male  mascu~
##  2 C-3PO    167    75 <NA>       gold       yellow         112   none  mascu~
##  3 R2-D2     96    32 <NA>       white, bl~ red             33   none  mascu~
##  4 Dart~    202   136 none       white      yellow          41.9 male  mascu~
##  5 Leia~    150    49 brown      light      brown           19   fema~ femin~
##  6 Owen~    178   120 brown, gr~ light      blue            52   male  mascu~
##  7 Beru~    165    75 brown      light      blue            47   fema~ femin~
##  8 R5-D4     97    32 <NA>       white, red red             NA   none  mascu~
##  9 Bigg~    183    84 black      light      brown           24   male  mascu~
## 10 Obi-~    182    77 auburn, w~ fair       blue-gray       57   male  mascu~
## # ... with 77 more rows, and 6 more variables: homeworld <chr>, species <chr>,
## #   films <list>, vehicles <list>, starships <list>, heightM <dbl>
```
…
# Exercício 3: mutate() - Resolução

- Crie uma coluna com o calculo de IMC:

### Código

```r
data %>% 
  mutate(imc = mass/(heightM**2)) %>% 
  select(name, imc)
```

```
## # A tibble: 87 x 2
##    name                 imc
##    <chr>              <dbl>
##  1 Luke Skywalker      26.0
##  2 C-3PO               26.9
##  3 R2-D2               34.7
##  4 Darth Vader         33.3
##  5 Leia Organa         21.8
##  6 Owen Lars           37.9
##  7 Beru Whitesun lars  27.5
##  8 R5-D4               34.0
##  9 Biggs Darklighter   25.1
## 10 Obi-Wan Kenobi      23.2
## # ... with 77 more rows
```
---

# Função: arrange()

A função arrange() irá reoordenar as linhas da base de dados conforme a variável escolhida. Podemos reoordenar de forma crescente e decrescente. Para fazer crescente basta usar a função *arrange()* e para fazer decrescente basta fazer *arrange(desc())*.

## Código - Ordem crescente

```r
starwars %>% 
  arrange(height)
```

```
## # A tibble: 87 x 14
##    name  height  mass hair_color skin_color eye_color birth_year sex   gender
##    <chr>  <int> <dbl> <chr>      <chr>      <chr>          <dbl> <chr> <chr> 
##  1 Yoda      66    17 white      green      brown            896 male  mascu~
##  2 Ratt~     79    15 none       grey, blue unknown           NA male  mascu~
##  3 Wick~     88    20 brown      brown      brown              8 male  mascu~
##  4 Dud ~     94    45 none       blue, grey yellow            NA male  mascu~
##  5 R2-D2     96    32 <NA>       white, bl~ red               33 none  mascu~
##  6 R4-P~     96    NA none       silver, r~ red, blue         NA none  femin~
##  7 R5-D4     97    32 <NA>       white, red red               NA none  mascu~
##  8 Sebu~    112    40 none       grey, red  orange            NA male  mascu~
##  9 Gasg~    122    NA none       white, bl~ black             NA male  mascu~
## 10 Watto    137    NA black      blue, grey yellow            NA male  mascu~
## # ... with 77 more rows, and 5 more variables: homeworld <chr>, species <chr>,
## #   films <list>, vehicles <list>, starships <list>
```

---

# Função: arrange()

## Código - Ordem decrescente

```r
starwars %>% 
  arrange(desc(height))
```

```
## # A tibble: 87 x 14
##    name  height  mass hair_color skin_color eye_color birth_year sex   gender
##    <chr>  <int> <dbl> <chr>      <chr>      <chr>          <dbl> <chr> <chr> 
##  1 Yara~    264    NA none       white      yellow          NA   male  mascu~
##  2 Tarf~    234   136 brown      brown      blue            NA   male  mascu~
##  3 Lama~    229    88 none       grey       black           NA   male  mascu~
##  4 Chew~    228   112 brown      unknown    blue           200   male  mascu~
##  5 Roos~    224    82 none       grey       orange          NA   male  mascu~
##  6 Grie~    216   159 none       brown, wh~ green, y~       NA   male  mascu~
##  7 Taun~    213    NA none       grey       black           NA   fema~ femin~
##  8 Rugo~    206    NA none       green      orange          NA   male  mascu~
##  9 Tion~    206    80 none       grey       black           NA   male  mascu~
## 10 Dart~    202   136 none       white      yellow          41.9 male  mascu~
## # ... with 77 more rows, and 5 more variables: homeworld <chr>, species <chr>,
## #   films <list>, vehicles <list>, starships <list>
```
…
---
# Exercício 4: arrange() - Resolução

- Coloque a coluna **mass** em ordem decrescente.

## Código:

```r
starwars %>% 
  arrange(desc(mass))
```

```
## # A tibble: 87 x 14
##    name  height  mass hair_color skin_color eye_color birth_year sex   gender
##    <chr>  <int> <dbl> <chr>      <chr>      <chr>          <dbl> <chr> <chr> 
##  1 Jabb~    175  1358 <NA>       green-tan~ orange         600   herm~ mascu~
##  2 Grie~    216   159 none       brown, wh~ green, y~       NA   male  mascu~
##  3 IG-88    200   140 none       metal      red             15   none  mascu~
##  4 Dart~    202   136 none       white      yellow          41.9 male  mascu~
##  5 Tarf~    234   136 brown      brown      blue            NA   male  mascu~
##  6 Owen~    178   120 brown, gr~ light      blue            52   male  mascu~
##  7 Bossk    190   113 none       green      red             53   male  mascu~
##  8 Chew~    228   112 brown      unknown    blue           200   male  mascu~
##  9 Jek ~    180   110 brown      fair       blue            NA   male  mascu~
## 10 Dext~    198   102 none       brown      yellow          NA   male  mascu~
## # ... with 77 more rows, and 5 more variables: homeworld <chr>, species <chr>,
## #   films <list>, vehicles <list>, starships <list>
```
…
